Andrew’s Code
…
Transition States Code Chunks

Data access from bjtData.csv

#Import data of BJT simulation
bjt_df <- readr::read_csv("./bjtData.csv",show_col_types = FALSE)

print(bjt_df)

## # A tibble: 505 × 3
##    Ib_mA Vce_V     Ic_A
##    <dbl> <dbl>    <dbl>
##  1     3   0   -0.00246
##  2     3   0.1  0.0679 
##  3     3   0.2  0.215  
##  4     3   0.3  0.333  
##  5     3   0.4  0.364  
##  6     3   0.5  0.367  
##  7     3   0.6  0.367  
##  8     3   0.7  0.367  
##  9     3   0.8  0.368  
## 10     3   0.9  0.368  
## # … with 495 more rows
…
